Data for environmental risk assessment of plant protection products — derappp • derappp
…
derappp

    Format

    A number of tables collected in a dm::dm object

    Examples

library(derappp) # This also loads the dm package
dm_draw(derappp)
<?xml version="1.0" encoding="UTF-8" standalone="no"?>
# The list of chemical entities ("chents")
derappp$chents
#> # A tibble: 358 × 8
#>    chent                 ai    iso      mw smiles pubchem inchikey bcpc_activity
#>    <chr>                 <lgl> <chr> <dbl> <chr>    <int> <chr>    <chr>        
#>  1 1-Decanol             TRUE  NA    158.  CCCCC…    8174 MWKFXSU… NA           
#>  2 1-Methylcyclopropene  TRUE  NA     54.1 CC1=C…  151080 SHDPRTQ… plant growth…
#>  3 1-Naphthylacetic acid TRUE  NA    186.  C1=CC…    6862 PRPINYU… NA           
#>  4 2,4-D                 TRUE  2,4-D 221.  C1=CC…    1486 OVSKIKF… herbicides   
#>  5 2,4-DB                TRUE  2,4-… 249.  C1=CC…    1489 YIVXMZJ… herbicides   
#>  6 2,6-Dichlorobenzamide FALSE NA    190.  C1=CC…   16183 JHSPCUH… NA           
#>  7 2-(1-Naphthyl) aceta… TRUE  NA    185.  C1=CC…    6861 XFNJVKM… NA           
#>  8 2-Amino-4,6-dimethox… FALSE NA    155.  COC1=…  118946 LVFRCHI… NA           
#>  9 6-Benzyladenine       TRUE  NA    225.  C1=CC…   62389 NWBJYWH… NA           
#> 10 Acequinocyl           TRUE  Aceq… 384.  CCCCC…   93315 QDRXWCA… acaricides   
#> # ℹ 348 more rows
…
# Join names used in the Swiss register
derappp$chents |>
  left_join(derappp$substance_keys, by = c(chent = "substance")) |>
  filter(db == "srppp") |>
  left_join(srppphist::srppp_active_substances, by = c(key = "pk")) |>
  select(chent, iso, smiles, substance_de)
#> # A tibble: 377 × 4
#>    chent                    iso   smiles                           substance_de 
#>    <chr>                    <chr> <chr>                            <chr>        
#>  1 1-Decanol                NA    CCCCCCCCCCO                      1-Decanol    
#>  2 1-Decanol                NA    CCCCCCCCCCO                      1-Decanol    
#>  3 1-Naphthylacetic acid    NA    C1=CC=C2C(=C1)C=CC=C2CC(=O)O     1-Naphthylac…
#>  4 1-Naphthylacetic acid    NA    C1=CC=C2C(=C1)C=CC=C2CC(=O)O     1-Naphthylac…
#>  5 2,4-D                    2,4-D C1=CC(=C(C=C1Cl)Cl)OCC(=O)O      2,4-D        
#>  6 2,4-D                    2,4-D C1=CC(=C(C=C1Cl)Cl)OCC(=O)O      2,4-D        
#>  7 2-(1-Naphthyl) acetamide NA    C1=CC=C2C(=C1)C=CC=C2CC(=O)N     2-(1-naphthy…
#>  8 2-(1-Naphthyl) acetamide NA    C1=CC=C2C(=C1)C=CC=C2CC(=O)N     1-Naphthylac…
#>  9 2-(1-Naphthyl) acetamide NA    C1=CC=C2C(=C1)C=CC=C2CC(=O)N     1-Naphthylac…
#> 10 6-Benzyladenine          NA    C1=CC=C(C=C1)CNC2=NC=NC3=C2NC=N3 6-benzyladen…
#> # ℹ 367 more rows
…
# Show some soil degradation data with units
derappp$soil_degradation |>
  select(substance, DT50, kinetics, alpha, beta, k1, k2, g, tb, sk) |>
  print(n = 10)
#> # A tibble: 71 × 10
#>    substance       DT50 kinetics alpha  beta      k1       k2   g  tb sk        
#>    <chr>            [d] <chr>      [1] [1/d]   [1/d]    [1/d] [1] [d] <chr>     
#>  1 Amisulbrom      12.6 SFO      NA     NA   NA      NA        NA  NA j.efsa.20…
#>  2 Azoxystrobin   262   SFO      NA     NA   NA      NA        NA  NA j.efsa.20…
#>  3 Benalaxyl      128.  SFO      NA     NA   NA      NA        NA  NA j.efsa.20…
#>  4 Bixafen       3014.  HS       NA     NA    0.0081  0.00023  NA  53 j.efsa.20…
#>  5 Boscalid       227.  SFO      NA     NA   NA      NA        NA  NA Boscalid_…
#>  6 Bupirimate     119.  FOMC      1.12  58.4 NA      NA        NA  NA j.efsa.20…
#>  7 Buprofezin     166.  SFO      NA     NA   NA      NA        NA  NA j.efsa.20…
#>  8 Carbendazim     78   SFO      NA     NA   NA      NA        NA  NA j.efsa.20…
#>  9 Chloridazon     78.5 SFO      NA     NA   NA      NA        NA  NA j.efsa.20…
#> 10 Chlorotoluron  107.  SFO      NA     NA   NA      NA        NA  NA Chlorotol…
#> # ℹ 61 more rows
…
# Species groupings and taxonomic IDs
derappp$species
#> # A tibble: 199 × 7
#>    species      group derappp_species ott_id is_synonym flags salt_water_species
#>    <chr>        <chr> <chr>            <int> <lgl>      <chr> <lgl>             
#>  1 Acipenser t… Fish  Acipenser tran… 3.79e5 FALSE      ""    FALSE             
#>  2 Americamysi… Aqua… Americamysis b… 3.34e5 FALSE      ""    TRUE              
#>  3 American fl… Fish  Jordanella flo… 8.23e4 FALSE      ""    FALSE             
#>  4 American wa… Aqua… Elodea canaden… 1.07e6 FALSE      ""    FALSE             
#>  5 Amphiascus … Aqua… Amphiascus ten… 5.95e5 FALSE      ""    FALSE             
#>  6 Anabaena fl… Aqua… Dolichospermum… 3.69e5 FALSE      "sib… FALSE             
#>  7 Anabaena fl… Aqua… Dolichospermum… 3.69e5 FALSE      "sib… FALSE             
#>  8 Anabaena va… Aqua… Trichormus var… 5.24e5 TRUE       "inc… FALSE             
#>  9 Ankistrodes… Aqua… Ankistrodesmus… 7.28e5 FALSE      ""    FALSE             
#> 10 Aphanizomen… Aqua… Aphanizomenon … 8.94e5 FALSE      "sib… FALSE             
#> # ℹ 189 more rows
…
