…
There are three types of substances in this table. Pure, well-defined
chemical substances are considered to be chemical entities and have type
`chent`. For all chemical entities, the structure is available in the
form of a SMILES code. Substances can also be of the type `mixture` or
`undefined`.

Code

``` r

derappp$substances
```

    # A tibble: 390 × 3
       substance                       n_chents type
       <chr>                              <int> <fct>
     1 1-Decanol                              1 chent
     2 1-Methylcyclopropene                   1 chent
     3 1-Naphthylacetic acid                  1 chent
     4 2,4-D                                  1 chent
     5 2,4-DB                                 1 chent
     6 2,6-Dichlorobenzamide                  1 chent
     7 2-(1-Naphthyl) acetamide               1 chent
     8 2-Amino-4,6-dimethoxypyrimidine        1 chent
     9 3AEY                                   0 undefined
    10 6-Benzyladenine                        1 chent
    # ℹ 380 more rows
…
The chemical composition of the substances is stored in
`substance_compositions` as follows. Chemical entities are substances
with only one component. The name of the substance is equal to the name
of the chemical entity, and the minimum as well as the maximum content
is equal to one.

Code

``` r

derappp$substance_compositions |> filter(min == 1)
```

    # A tibble: 358 × 6
       substance                       chent                   min   max doi    page
       <chr>                           <chr>                 <dbl> <dbl> <chr> <int>
     1 1-Decanol                       1-Decanol                 1     1 <NA>     NA
     2 1-Methylcyclopropene            1-Methylcyclopropene      1     1 <NA>     NA
     3 1-Naphthylacetic acid           1-Naphthylacetic acid     1     1 <NA>     NA
     4 2,4-D                           2,4-D                     1     1 <NA>     NA
     5 2,4-DB                          2,4-DB                    1     1 <NA>     NA
     6 2,6-Dichlorobenzamide           2,6-Dichlorobenzamide     1     1 <NA>     NA
     7 2-(1-Naphthyl) acetamide        2-(1-Naphthyl) aceta…     1     1 <NA>     NA
     8 2-Amino-4,6-dimethoxypyrimidine 2-Amino-4,6-dimethox…     1     1 <NA>     NA
     9 6-Benzyladenine                 6-Benzyladenine           1     1 <NA>     NA
    10 Acequinocyl                     Acequinocyl               1     1 <NA>     NA
    # ℹ 348 more rows

### Mixtures of chemical entities

For mixtures, the minimum content of at least one component is less than
one. The source of the compositional information is given via a DOI and
a page number.

Code

``` r

derappp$substance_compositions |> filter(min < 1)
```

    # A tibble: 34 × 6
       substance        chent                       min   max doi               page
       <chr>            <chr>                     <dbl> <dbl> <chr>            <int>
     1 Abamectin        Avermectin B1a              0.8 1     10.2903/j.efsa.…     2
     2 Abamectin        Avermectin B1b              0   0.2   10.2903/j.efsa.…     2
     3 Beta-cyfluthrin  Cyfluthrin-(1S,3S,alphaR)   0   0.334 10.2903/j.efsa.…     7
     4 Beta-cyfluthrin  Cyfluthrin-(1R,3R,alphaS)   0   0.334 10.2903/j.efsa.…     7
     5 Beta-cyfluthrin  Cyfluthrin-(1S,3R,alphaR)   0   0.667 10.2903/j.efsa.…     7
     6 Beta-cyfluthrin  Cyfluthrin-(1R,3S,alphaS)   0   0.667 10.2903/j.efsa.…     7
     7 Bifenthrin       Bifenthrin-(1R,3R)          0   1     10.2903/j.efsa.…    11
     8 Bifenthrin       Bifenthrin-(1S,3S)          0   1     10.2903/j.efsa.…    11
     9 Bordeaux mixture Copper(II) sulfate          0   1     10.2903/j.efsa.…     7
    10 Bordeaux mixture Calcium hydroxide           0   1     10.2903/j.efsa.…     7
    # ℹ 24 more rows
…
## Chemical entities

The table of chemical entities in the package is shown below.

Code

``` r

derappp$chents
```

    # A tibble: 358 × 8
       chent                 ai    iso      mw smiles pubchem inchikey bcpc_activity
       <chr>                 <lgl> <chr> <dbl> <chr>    <int> <chr>    <chr>
     1 1-Decanol             TRUE  <NA>  158.  CCCCC…    8174 MWKFXSU… <NA>
     2 1-Methylcyclopropene  TRUE  <NA>   54.1 CC1=C…  151080 SHDPRTQ… plant growth…
     3 1-Naphthylacetic acid TRUE  <NA>  186.  C1=CC…    6862 PRPINYU… <NA>
     4 2,4-D                 TRUE  2,4-D 221.  C1=CC…    1486 OVSKIKF… herbicides
     5 2,4-DB                TRUE  2,4-… 249.  C1=CC…    1489 YIVXMZJ… herbicides
     6 2,6-Dichlorobenzamide FALSE <NA>  190.  C1=CC…   16183 JHSPCUH… <NA>
     7 2-(1-Naphthyl) aceta… TRUE  <NA>  185.  C1=CC…    6861 XFNJVKM… <NA>
     8 2-Amino-4,6-dimethox… FALSE <NA>  155.  COC1=…  118946 LVFRCHI… <NA>
     9 6-Benzyladenine       TRUE  <NA>  225.  C1=CC…   62389 NWBJYWH… <NA>
    10 Acequinocyl           TRUE  Aceq… 384.  CCCCC…   93315 QDRXWCA… acaricides
    # ℹ 348 more rows
…
Figure 2: Chemical structure of tebufenozide, plotted using the chents
package

## Sources

The table of sources that can be referenced is given below.

Code

``` r

derappp$sources
```

    # A tibble: 564 × 5
       sk                        reference                         year  url   file
       <chr>                     <chr>                             <chr> <chr> <chr>
     1 derappp                   "E. Lutz, M. Mathis, and J. Rank… 2026  http… <NA>
     2 szocs2020webchem          "E. Sz<c3><b6>cs, T. Stirling, E… 2020  <NA>  <NA>
     3 ranke2026chents           "J. Ranke. _chents: Chemical Ent… 2026  http… <NA>
     4 BCPC_Compendium           "British Crop Protection Council… 2024  http… <NA>
     5 PubChem                   "National Center for Biotechnolo… 2024  http… <NA>
     6 CAS_Common_Chemistry      "CAS Division of the American Ch… 2024  http… <NA>
     7 envipath                  "enviPath UG & Co KG. _envipath:… 2024  http… <NA>
     8 PPDB_Agroscope_2024-07-01 "University of Hertfordshire, ed… 2024  <NA>  <NA>
     9 PIERIS_2024-06-05         "Agroscope, ed. _Pesticides and … 2024  <NA>  <NA>
    10 ranke2026openfoodtox      "J. Ranke. _OpenFoodTox: EFSA Op… 2026  http… <NA>
    # ℹ 554 more rows
…
### Species

The table of species observed in the toxicity tests is given below.

Code

``` r

derappp$species
```

    # A tibble: 199 × 7
       species      group derappp_species ott_id is_synonym flags salt_water_species
       <chr>        <chr> <chr>            <int> <lgl>      <chr> <lgl>
     1 Acipenser t… Fish  Acipenser tran… 3.79e5 FALSE      ""    FALSE
     2 Americamysi… Aqua… Americamysis b… 3.34e5 FALSE      ""    TRUE
     3 American fl… Fish  Jordanella flo… 8.23e4 FALSE      ""    FALSE
     4 American wa… Aqua… Elodea canaden… 1.07e6 FALSE      ""    FALSE
     5 Amphiascus … Aqua… Amphiascus ten… 5.95e5 FALSE      ""    FALSE
     6 Anabaena fl… Aqua… Dolichospermum… 3.69e5 FALSE      "sib… FALSE
     7 Anabaena fl… Aqua… Dolichospermum… 3.69e5 FALSE      "sib… FALSE
     8 Anabaena va… Aqua… Trichormus var… 5.24e5 TRUE       "inc… FALSE
     9 Ankistrodes… Aqua… Ankistrodesmus… 7.28e5 FALSE      ""    FALSE
    10 Aphanizomen… Aqua… Aphanizomenon … 8.94e5 FALSE      "sib… FALSE
    # ℹ 189 more rows
…
Code

``` r

print(derappp$soil_degradation[c("substance", "DT50", "kinetics",
  "alpha", "beta", "k1", "k2", "g", "tb", "sk")])
```

    # A tibble: 71 × 10
       substance       DT50 kinetics alpha  beta      k1       k2   g  tb sk
       <chr>            [d] <chr>      [1] [1/d]   [1/d]    [1/d] [1] [d] <chr>
     1 Amisulbrom      12.6 SFO      NA     NA   NA      NA        NA  NA j.efsa.20…
     2 Azoxystrobin   262   SFO      NA     NA   NA      NA        NA  NA j.efsa.20…
     3 Benalaxyl      128.  SFO      NA     NA   NA      NA        NA  NA j.efsa.20…
     4 Bixafen       3014.  HS       NA     NA    0.0081  0.00023  NA  53 j.efsa.20…
     5 Boscalid       227.  SFO      NA     NA   NA      NA        NA  NA Boscalid_…
     6 Bupirimate     119.  FOMC      1.12  58.4 NA      NA        NA  NA j.efsa.20…
     7 Buprofezin     166.  SFO      NA     NA   NA      NA        NA  NA j.efsa.20…
     8 Carbendazim     78   SFO      NA     NA   NA      NA        NA  NA j.efsa.20…
     9 Chloridazon     78.5 SFO      NA     NA   NA      NA        NA  NA j.efsa.20…
    10 Chlorotoluron  107.  SFO      NA     NA   NA      NA        NA  NA Chlorotol…
    # ℹ 61 more rows

### Aquatic toxicity

Code

``` r

derappp$aquatic_toxicity[c("substance", "derappp_species", "duration", "effect",
  "sign", "value", "sk")]
```

    # A tibble: 977 × 7
       substance derappp_species                 duration effect sign    value sk
       <chr>     <chr>                                [d] <chr>  <chr>  [mg/L] <chr>
     1 Abamectin Pimephales promelas                    4 <NA>   =     1.47e+1 j.ef…
     2 Abamectin Oncorhynchus mykiss (species i…        4 <NA>   =     7   e+0 j.ef…
     3 Abamectin Oncorhynchus mykiss (species i…        4 <NA>   =     2.5 e+0 j.ef…
     4 Abamectin Danio rerio                            4 <NA>   =     4.9 e+1 j.ef…
     5 Abamectin Oncorhynchus mykiss (species i…       72 <NA>   =     5.2 e-1 j.ef…
     6 Abamectin Daphnia magna                          2 <NA>   =     5.6 e-1 j.ef…
     7 Abamectin Daphnia longispina                     2 <NA>   =     3.5 e-1 j.ef…
     8 Abamectin Daphnia pulex                          2 <NA>   =     9.6 e-2 j.ef…
     9 Abamectin Simocephalus (genus in Protost…        2 <NA>   =     3   e-1 j.ef…
    10 Abamectin Brachionus calyciflorus                1 <NA>   =     3.78e+3 j.ef…
    # ℹ 967 more rows
…
As soil toxicity values can have incompatible unit types, as some values
are expressed as rates (e.g. in g/ha) and some are expressed as
concentrations (e.g. mg/kg dry soil), there is a dedicated `unit` column
in the `soil_toxicity` table.

Code

``` r

derappp$soil_toxicity[c("substance", "derappp_species", "duration", "effect",
  "sign", "value", "unit", "sk")]
```

    # A tibble: 461 × 8
       substance             derappp_species duration effect sign  value unit  sk
       <chr>                 <chr>                [d] <chr>  <chr> <dbl> <chr> <chr>
     1 2,6-Dichlorobenzamide Eisenia fetida        56 repro… =     250   mg/kg Dich…
     2 2,6-Dichlorobenzamide Folsomia candi…       28 repro… =      25   mg/kg j.ef…
     3 2-Amino-4,6-dimethox… Eisenia fetida        56 repro… =      10   mg/kg j.ef…
     4 2-Amino-4,6-dimethox… Eisenia fetida        56 repro… =      15.5 mg/kg j.ef…
     5 2-Amino-4,6-dimethox… Gaeolaelaps ac…       14 repro… <e2>… 100   mg/kg Fora…
     6 2-Amino-4,6-dimethox… Folsomia candi…       28 repro… <e2>… 100   mg/kg Fora…
     7 2-Amino-4,6-dimethox… Eisenia fetida        56 repro… <e2>… 100   mg/kg Flaz…
     8 2-Amino-4,6-dimethox… Folsomia candi…       28 repro… <e2>… 100   mg/kg Flaz…
     9 2-Amino-4,6-dimethox… Gaeolaelaps ac…       14 repro… <e2>… 100   mg/kg Flaz…
    10 Amisulbrom            Eisenia fetida        56 repro… <e2>…  93.7 mg/kg amis…
    # ℹ 451 more rows
…
